aileron,aileron-trim,elevator,elevator-trim,rudder,rudder-trim,flaps,slats,speedbrake,throttle,throttle1,starter,starter1,fuel-pump,fuel-pump1,cutoff,cutoff1,mixture,mixture1,propeller-pitch,propeller-pitch1,magnetos,magnetos1,ignition,ignition1,brake-left,brake-right,brake-parking,steering,gear-down,gear-position,gear-position1,gear-position2,gear-position3,gear-position4,engine-pump,engine-pump1,electric-pump,electric-pump1,battery-switch,external-power,APU-generator,engage,heading-select,altitude-select,bank-angle-select,vertical-speed-select,speed-select,apu-gen-switch,l-bus-tie-sw,r-bus-tie-sw,l-bus-gen-sw,ned-north-accel-fps_sec
low,low,high,high,low,low,low,low,low,low,low,low,low,low,low,medium,medium,low,low,low,low,low,low,low,low,low,low,low,low,medium,low,low,low,low,low,low,low,low,low,low,low,low,low,low,low,low,low,low,low,low,low,low,medium
low,low,high,high,low,low,low,low,low,low,low,low,low,low,low,medium,medium,low,low,low,low,low,low,low,low,low,low,low,low,medium,low,low,low,low,low,low,low,low,low,low,low,low,low,low,low,low,low,low,low,low,low,low,low
medium,low,high,high,medium,low,low,low,low,low,low,low,low,low,low,medium,medium,low,low,low,low,low,low,low,low,low,low,low,low,low,low,low,low,low,low,low,low,low,low,low,low,low,low,low,low,low,low,low,low,low,low,low,low
low,low,high,high,low,low,low,low,low,low,low,low,low,low,low,medium,medium,low,low,low,low,low,low,low,low,low,low,low,low,low,low,low,low,low,low,low,low,low,low,low,low,low,low,low,low,low,low,low,low,low,low,low,low
low,low,high,high,low,low,low,low,low,medium,medium,low,low,low,low,medium,medium,low,low,low,low,low,low,low,low,low,low,low,low,low,low,low,low,low,low,low,low,low,low,low,low,low,low,low,low,low,low,low,low,low,low,low,low
low,low,high,high,low,low,low,low,low,medium,medium,low,low,low,low,medium,medium,low,low,low,low,low,low,low,low,low,low,low,low,low,low,low,low,low,low,low,low,low,low,low,low,low,low,low,low,low,low,low,low,low,low,low,low
low,low,high,high,low,low,low,low,low,high,high,low,low,low,low,medium,medium,low,low,low,low,low,low,low,low,low,low,low,low,low,low,low,low,low,low,low,low,low,low,low,low,low,low,low,low,low,low,low,low,low,low,low,low
low,low,high,high,low,low,low,low,low,high,high,low,low,low,low,medium,medium,low,low,low,low,low,low,low,low,low,low,low,low,low,low,low,low,low,low,low,low,low,low,low,low,low,low,low,low,low,low,low,low,low,low,low,low
low,low,high,high,low,low,low,low,low,low,low,low,low,low,low,medium,medium,low,low,low,low,low,low,low,low,low,low,low,low,low,low,low,low,low,low,low,low,low,low,low,low,low,low,low,low,low,low,low,low,low,low,low,low
low,low,high,high,low,low,low,low,low,low,low,low,low,low,low,medium,medium,low,low,low,low,low,low,low,low,low,low,low,low,low,low,low,low,low,low,low,low,low,low,low,low,low,low,low,low,low,low,low,low,low,low,low,low
high,low,high,high,low,low,low,low,low,low,low,low,low,low,low,medium,medium,low,low,low,low,low,low,low,low,low,low,low,low,low,low,low,low,low,low,low,low,low,low,low,low,low,low,low,low,low,low,low,low,low,low,low,low
low,low,high,high,low,low,low,low,low,low,low,low,low,low,low,medium,medium,low,low,low,low,low,low,low,low,low,low,low,low,low,low,low,low,low,low,low,low,low,low,low,low,low,low,low,low,low,low,low,low,low,low,low,low
low,low,high,high,low,low,low,low,low,low,low,low,low,low,low,medium,medium,low,low,low,low,low,low,low,low,low,low,low,low,low,low,low,low,low,low,low,low,low,low,low,low,low,low,low,low,low,low,low,low,low,low,low,low
high,low,high,high,high,low,low,low,low,low,low,low,low,low,low,medium,medium,low,low,low,low,low,low,low,low,low,low,low,low,low,low,low,low,low,low,low,low,low,low,low,low,low,low,low,low,low,low,low,low,low,low,low,low
low,low,high,high,low,low,low,low,low,low,low,low,low,low,low,medium,medium,low,low,low,low,low,low,low,low,low,low,low,low,low,low,low,low,low,low,low,low,low,low,low,low,low,low,low,low,low,low,low,low,low,low,low,low
low,low,high,high,low,low,low,low,low,low,low,low,low,low,low,medium,medium,low,low,low,low,low,low,low,low,low,low,low,low,low,low,low,low,low,low,low,low,low,low,low,low,low,low,low,low,low,low,low,low,low,low,low,low
low,low,high,high,low,low,low,low,low,low,low,low,low,low,low,medium,medium,low,low,low,low,low,low,low,low,low,low,low,low,low,low,low,low,low,low,low,low,low,low,low,low,low,low,low,low,low,low,low,low,low,low,low,low
medium,low,high,high,low,low,low,low,low,low,low,low,low,low,low,medium,medium,low,low,low,low,low,low,low,low,low,low,low,low,low,low,low,low,low,low,low,low,low,low,low,low,low,low,low,low,low,low,low,low,low,low,low,low
high,low,high,high,high,low,low,low,low,medium,medium,low,low,low,low,medium,medium,low,low,low,low,low,low,low,low,low,low,low,low,low,low,low,low,low,low,low,low,low,low,low,low,low,low,low,low,low,low,low,low,low,low,low,low
high,low,high,high,high,low,low,low,low,medium,medium,low,low,low,low,medium,medium,low,low,low,low,low,low,low,low,low,low,low,low,low,low,low,low,low,low,low,low,low,low,low,low,low,low,low,low,low,low,low,low,low,low,low,medium
high,low,medium,high,high,low,low,low,low,medium,medium,low,low,low,low,medium,medium,low,low,low,low,low,low,low,low,low,low,low,low,low,medium,low,low,low,low,low,low,low,low,low,low,low,low,low,low,low,low,low,low,low,low,low,medium
low,low,medium,high,medium,low,low,low,low,medium,medium,low,low,low,low,medium,medium,low,low,low,low,low,low,low,low,low,low,low,low,low,medium,medium,medium,medium,medium,low,low,low,low,low,low,low,low,low,low,low,low,low,low,low,low,low,medium
low,low,medium,high,medium,low,low,low,low,medium,medium,low,low,low,low,medium,medium,low,low,low,low,low,low,low,low,low,low,low,low,low,medium,medium,medium,medium,medium,low,low,low,low,low,low,low,low,low,low,low,low,low,low,low,low,low,medium
low,low,medium,high,low,low,low,low,low,medium,medium,low,low,low,low,medium,medium,low,low,low,low,low,low,low,low,low,low,low,low,low,medium,medium,medium,medium,medium,low,low,low,low,low,low,low,low,low,low,low,low,low,low,low,low,low,medium
high,low,medium,high,medium,low,low,low,low,medium,medium,low,low,low,low,medium,medium,low,low,low,low,low,low,low,low,low,low,low,low,low,medium,medium,medium,medium,medium,low,low,low,low,low,low,low,low,low,low,low,low,low,low,low,low,low,medium
low,low,medium,high,low,low,low,low,low,medium,medium,low,low,low,low,medium,medium,low,low,low,low,low,low,low,low,low,low,low,low,low,medium,medium,medium,medium,medium,low,low,low,low,low,low,low,low,low,low,low,low,low,low,low,low,low,medium
low,low,medium,high,low,low,low,low,low,medium,medium,low,low,low,low,medium,medium,low,low,low,low,low,low,low,low,low,low,low,low,low,medium,medium,medium,medium,medium,low,low,low,low,low,low,low,low,low,low,low,low,low,low,low,low,low,medium
low,low,medium,high,low,low,low,low,low,medium,medium,low,low,low,low,medium,medium,low,low,low,low,low,low,low,low,low,low,low,low,low,medium,medium,medium,medium,medium,low,low,low,low,low,low,low,low,low,low,low,low,low,low,low,low,low,medium
low,low,medium,high,low,low,low,low,low,medium,medium,low,low,low,low,medium,medium,low,low,low,low,low,low,low,low,low,low,low,low,low,medium,medium,medium,medium,medium,low,low,low,low,low,low,low,low,low,low,low,low,low,low,low,low,low,medium
low,low,medium,high,low,low,low,low,low,medium,medium,low,low,low,low,medium,medium,low,low,low,low,low,low,low,low,low,low,low,low,low,medium,medium,medium,medium,medium,low,low,low,low,low,low,low,low,low,low,low,low,low,low,low,low,low,medium
low,low,medium,high,low,low,low,low,low,medium,medium,low,low,low,low,medium,medium,low,low,low,low,low,low,low,low,low,low,low,low,low,medium,medium,medium,medium,medium,low,low,low,low,low,low,low,low,low,low,low,low,low,low,low,low,low,low
low,low,medium,high,low,low,low,low,low,medium,medium,low,low,low,low,medium,medium,low,low,low,low,low,low,low,low,low,low,low,low,low,medium,medium,medium,medium,medium,low,low,low,low,low,low,low,low,low,low,low,low,low,low,low,low,low,low
medium,low,medium,high,low,low,low,low,low,medium,medium,low,low,low,low,medium,medium,low,low,low,low,low,low,low,low,low,low,low,low,low,medium,medium,medium,medium,medium,low,low,low,low,low,low,low,low,low,low,low,low,low,low,low,low,low,low
low,low,medium,high,low,low,low,low,low,medium,medium,low,low,low,low,medium,medium,low,low,low,low,low,low,low,low,low,low,low,low,low,medium,medium,medium,medium,medium,low,low,low,low,low,low,low,low,low,low,low,low,low,low,low,low,low,low
high,low,medium,high,low,low,low,low,low,medium,medium,low,low,low,low,medium,medium,low,low,low,low,low,low,low,low,low,low,low,low,low,medium,medium,medium,medium,medium,low,low,low,low,low,low,low,low,low,low,low,low,low,low,low,low,low,medium
low,low,medium,high,low,low,low,low,low,medium,medium,low,low,low,low,medium,medium,low,low,low,low,low,low,low,low,low,low,low,low,low,medium,medium,medium,medium,medium,low,low,low,low,low,low,low,low,low,low,low,low,low,low,low,low,low,medium
low,low,medium,high,low,low,low,low,low,medium,medium,low,low,low,low,medium,medium,low,low,low,low,low,low,low,low,low,low,low,low,low,medium,medium,medium,medium,medium,low,low,low,low,low,low,low,low,low,low,low,low,low,low,low,low,low,medium
high,low,medium,high,medium,low,low,low,low,medium,medium,low,low,low,low,medium,medium,low,low,low,low,low,low,low,low,low,low,low,low,low,medium,medium,medium,medium,medium,low,low,low,low,low,low,low,low,low,low,low,low,low,low,low,low,low,medium
high,low,medium,high,high,low,low,low,low,medium,medium,low,low,low,low,medium,medium,low,low,low,low,low,low,low,low,low,low,low,low,low,medium,medium,medium,medium,medium,low,low,low,low,low,low,low,low,low,low,low,low,low,low,low,low,low,medium
medium,low,medium,high,high,low,low,low,low,medium,medium,low,low,low,low,medium,medium,low,low,low,low,low,low,low,low,low,low,low,low,low,medium,medium,medium,medium,medium,low,low,low,low,low,low,low,low,low,low,low,low,low,low,low,low,low,medium
high,low,medium,high,high,low,low,low,low,medium,medium,low,low,low,low,medium,medium,low,low,low,low,low,low,low,low,low,low,low,low,low,medium,medium,medium,medium,medium,low,low,low,low,low,low,low,low,low,low,low,low,low,low,low,low,low,medium
high,low,medium,high,high,low,low,low,low,medium,medium,low,low,low,low,medium,medium,low,low,low,low,low,low,low,low,low,low,low,low,low,medium,medium,medium,medium,medium,low,low,low,low,low,low,low,low,low,low,low,low,low,low,low,low,low,medium
high,low,medium,high,high,low,low,low,low,medium,medium,low,low,low,low,medium,medium,low,low,low,low,low,low,low,low,low,low,low,low,low,medium,medium,medium,medium,medium,low,low,low,low,low,low,low,low,low,low,low,low,low,low,low,low,low,high
high,low,medium,high,high,low,low,low,low,medium,medium,low,low,low,low,medium,medium,low,low,low,low,low,low,low,low,low,low,low,low,low,medium,medium,medium,medium,medium,low,low,low,low,low,low,low,low,low,low,low,low,low,low,low,low,low,high
high,low,medium,high,high,low,low,low,low,medium,medium,low,low,low,low,medium,medium,low,low,low,low,low,low,low,low,low,low,low,low,low,medium,medium,medium,medium,medium,low,low,low,low,low,low,low,low,low,low,low,low,low,low,low,low,low,high
high,low,medium,high,high,low,low,low,low,medium,medium,low,low,low,low,medium,medium,low,low,low,low,low,low,low,low,low,low,low,low,low,medium,medium,medium,medium,medium,low,low,low,low,low,low,low,low,low,low,low,low,low,low,low,low,low,high
medium,low,medium,high,medium,low,low,low,low,medium,medium,low,low,low,low,medium,medium,low,low,low,low,low,low,low,low,low,low,low,low,low,medium,medium,medium,medium,medium,low,low,low,low,low,low,low,low,low,low,low,low,low,low,low,low,low,high
low,low,medium,high,medium,low,low,low,low,medium,medium,low,low,low,low,medium,medium,low,low,low,low,low,low,low,low,low,low,low,low,low,medium,medium,medium,medium,medium,low,low,low,low,low,low,low,low,low,low,low,low,low,low,low,low,low,high
low,low,low,high,medium,low,low,low,low,medium,medium,low,low,low,low,medium,medium,low,low,low,low,low,low,low,low,low,low,low,low,low,medium,medium,medium,medium,medium,low,low,low,low,low,low,low,low,low,low,low,low,low,low,low,low,low,high
low,low,low,high,low,low,low,low,low,medium,medium,low,low,low,low,medium,medium,low,low,low,low,low,low,low,low,low,low,low,low,low,medium,medium,medium,medium,medium,low,low,low,low,low,low,low,low,low,low,low,low,low,low,low,low,low,high
medium,low,low,high,low,low,low,low,low,medium,medium,low,low,low,low,medium,medium,low,low,low,low,low,low,low,low,low,low,low,low,low,medium,medium,medium,medium,medium,low,low,low,low,low,low,low,low,low,low,low,low,low,low,low,low,low,high
medium,low,low,medium,low,low,low,low,low,medium,medium,low,low,low,low,medium,medium,low,low,low,low,low,low,low,low,low,low,low,low,low,medium,medium,medium,medium,medium,low,low,low,low,low,low,low,low,low,low,low,low,low,low,low,low,low,high
low,low,medium,medium,low,low,low,low,low,medium,medium,low,low,low,low,medium,medium,low,low,low,low,low,low,low,low,low,low,low,low,low,medium,medium,medium,medium,medium,low,low,low,low,low,low,low,low,low,low,low,low,low,low,low,low,low,high
low,low,medium,medium,low,low,low,low,low,medium,medium,low,low,low,low,medium,medium,low,low,low,low,low,low,low,low,low,low,low,low,low,medium,medium,medium,medium,medium,low,low,low,low,low,low,low,low,low,low,low,low,low,low,low,low,low,medium
low,low,medium,medium,low,low,low,low,low,medium,medium,low,low,low,low,medium,medium,low,low,low,low,low,low,low,low,low,low,low,low,low,medium,medium,medium,medium,medium,low,low,low,low,low,low,low,low,low,low,low,low,low,low,low,low,low,medium
low,low,medium,medium,low,low,low,low,low,high,high,low,low,low,low,medium,medium,low,low,low,low,low,low,low,low,low,low,low,low,low,medium,medium,medium,medium,medium,low,low,low,low,low,low,low,low,low,low,low,low,low,low,low,low,low,medium
low,low,medium,medium,low,low,low,low,low,high,high,low,low,low,low,medium,medium,low,low,low,low,low,low,low,low,low,low,low,low,low,medium,medium,medium,medium,medium,low,low,low,low,low,low,low,low,low,low,low,low,low,low,low,low,low,medium
medium,low,medium,medium,low,low,low,low,low,high,high,low,low,low,low,medium,medium,low,low,low,low,low,low,low,low,low,low,low,low,low,medium,medium,medium,medium,medium,low,low,low,low,low,low,low,low,low,low,low,low,low,low,low,low,low,medium
low,low,medium,medium,low,low,low,low,low,high,high,low,low,low,low,medium,medium,low,low,low,low,low,low,low,low,low,low,low,low,low,medium,medium,medium,medium,medium,low,low,low,low,low,low,low,low,low,low,low,low,low,low,low,low,low,medium
high,low,medium,medium,low,low,low,low,low,high,high,low,low,low,low,medium,medium,low,low,low,low,low,low,low,low,low,low,low,low,low,medium,medium,medium,medium,medium,low,low,low,low,low,low,low,low,low,low,low,low,low,low,low,low,low,medium
high,low,medium,medium,low,low,low,low,low,high,high,low,low,low,low,medium,medium,low,low,low,low,low,low,low,low,low,low,low,low,low,medium,medium,medium,medium,medium,low,low,low,low,low,low,low,low,low,low,low,low,low,low,low,low,low,medium
high,low,medium,medium,medium,low,low,low,low,high,high,low,low,low,low,medium,medium,low,low,low,low,low,low,low,low,low,low,low,low,low,medium,medium,medium,medium,medium,low,low,low,low,low,low,low,low,low,low,low,low,low,low,low,low,low,medium
medium,low,medium,medium,high,low,low,low,low,high,high,low,low,low,low,medium,medium,low,low,low,low,low,low,low,low,low,low,low,low,low,medium,medium,medium,medium,medium,low,low,low,low,low,low,low,low,low,low,low,low,low,low,low,low,low,medium
medium,low,medium,medium,high,low,low,low,low,high,high,low,low,low,low,medium,medium,low,low,low,low,low,low,low,low,low,low,low,low,low,medium,medium,medium,medium,medium,low,low,low,low,low,low,low,low,low,low,low,low,low,low,low,low,low,medium
high,low,medium,medium,high,low,low,low,low,high,high,low,low,low,low,medium,medium,low,low,low,low,low,low,low,low,low,low,low,low,low,medium,medium,medium,medium,medium,low,low,low,low,low,low,low,low,low,low,low,low,low,low,low,low,low,high
high,low,medium,medium,high,low,low,low,low,high,high,low,low,low,low,medium,medium,low,low,low,low,low,low,low,low,low,low,low,low,low,medium,medium,medium,medium,medium,low,low,low,low,low,low,low,low,low,low,low,low,low,low,low,low,low,high
high,low,medium,medium,high,low,low,low,low,high,high,low,low,low,low,medium,medium,low,low,low,low,low,low,low,low,low,low,low,low,low,medium,medium,medium,medium,medium,low,low,low,low,low,low,low,low,low,low,low,low,low,low,low,low,low,high
high,low,low,medium,medium,low,low,low,low,low,low,low,low,low,low,medium,medium,low,low,low,low,low,low,low,low,low,low,low,low,low,medium,medium,medium,medium,medium,low,low,low,low,low,low,low,low,low,low,low,low,low,low,low,low,low,high
high,low,low,medium,medium,low,low,low,low,medium,medium,low,low,low,low,medium,medium,low,low,low,low,low,low,low,low,low,low,low,low,low,medium,medium,medium,medium,medium,low,low,low,low,low,low,low,low,low,low,low,low,low,low,low,low,low,medium
high,low,low,medium,medium,low,low,low,low,medium,medium,low,low,low,low,medium,medium,low,low,low,low,low,low,low,low,low,low,low,low,low,medium,medium,medium,medium,medium,low,low,low,low,low,low,low,low,low,low,low,low,low,low,low,low,low,low
high,low,low,medium,medium,low,low,low,low,medium,medium,low,low,low,low,medium,medium,low,low,low,low,low,low,low,low,low,low,low,low,low,medium,medium,medium,medium,medium,low,low,low,low,low,low,low,low,low,low,low,low,low,low,low,low,low,low
medium,low,low,medium,high,low,low,low,low,low,low,low,low,low,low,medium,medium,low,low,low,low,low,low,low,low,low,low,low,low,low,medium,medium,medium,medium,medium,low,low,low,low,low,low,low,low,low,low,low,low,low,low,low,low,low,low
high,low,low,medium,medium,low,low,low,low,high,high,low,low,low,low,medium,medium,low,low,low,low,low,low,low,low,low,low,low,low,low,medium,medium,medium,medium,medium,low,low,low,low,low,low,low,low,low,low,low,low,low,low,low,low,low,medium
low,low,low,medium,medium,low,low,low,low,medium,medium,low,low,low,low,medium,medium,low,low,low,low,low,low,low,low,low,low,low,low,low,medium,medium,medium,medium,medium,low,low,low,low,low,low,low,low,low,low,low,low,low,low,low,low,low,medium
medium,low,low,medium,low,low,low,low,low,medium,medium,low,low,low,low,medium,medium,low,low,low,low,low,low,low,low,low,low,low,low,low,medium,medium,medium,medium,medium,low,low,low,low,low,low,low,low,low,low,low,low,low,low,low,low,low,high
high,low,low,medium,medium,low,low,low,low,high,high,low,low,low,low,medium,medium,low,low,low,low,low,low,low,low,low,low,low,low,low,medium,medium,medium,medium,medium,low,low,low,low,low,low,low,low,low,low,low,low,low,low,low,low,low,high
low,low,low,medium,low,low,low,low,low,high,high,low,low,low,low,medium,medium,low,low,low,low,low,low,low,low,low,low,low,low,low,medium,medium,medium,medium,medium,low,low,low,low,low,low,low,low,low,low,low,low,low,low,low,low,low,high
low,low,low,medium,low,low,low,low,low,high,high,low,low,low,low,medium,medium,low,low,low,low,low,low,low,low,low,low,low,low,low,medium,medium,medium,medium,medium,low,low,low,low,low,low,low,low,low,low,low,low,low,low,low,low,low,medium
low,low,low,medium,low,low,low,low,low,high,high,low,low,low,low,medium,medium,low,low,low,low,low,low,low,low,low,low,low,low,low,medium,medium,medium,medium,medium,low,low,low,low,low,low,low,low,low,low,low,low,low,low,low,low,low,medium
low,low,low,medium,low,low,low,low,low,high,high,low,low,low,low,medium,medium,low,low,low,low,low,low,low,low,low,low,low,low,low,medium,medium,medium,medium,medium,low,low,low,low,low,low,low,low,low,low,low,low,low,low,low,low,low,medium
low,low,low,medium,low,low,low,low,low,high,high,low,low,low,low,medium,medium,low,low,low,low,low,low,low,low,low,low,low,low,low,medium,medium,medium,medium,medium,low,low,low,low,low,low,low,low,low,low,low,low,low,low,low,low,low,medium
low,low,low,medium,low,low,low,low,low,high,high,low,low,low,low,medium,medium,low,low,low,low,low,low,low,low,low,low,low,low,low,medium,medium,medium,medium,medium,low,low,low,low,low,low,low,low,low,low,low,low,low,low,low,low,low,medium
low,low,low,medium,low,low,low,low,low,high,high,low,low,low,low,medium,medium,low,low,low,low,low,low,low,low,low,low,low,low,low,medium,medium,medium,medium,medium,low,low,low,low,low,low,low,low,low,low,low,low,low,low,low,low,low,medium
low,low,low,medium,low,low,low,low,low,medium,medium,low,low,low,low,medium,medium,low,low,low,low,low,low,low,low,low,low,low,low,low,medium,medium,medium,medium,medium,low,low,low,low,low,low,low,low,low,low,low,low,low,low,low,low,low,medium
high,low,low,medium,low,low,low,low,low,medium,medium,low,low,low,low,medium,medium,low,low,low,low,low,low,low,low,low,low,low,low,low,medium,medium,medium,medium,medium,low,low,low,low,low,low,low,low,low,low,low,low,low,low,low,low,low,medium
high,low,low,medium,low,low,low,low,low,medium,medium,low,low,low,low,medium,medium,low,low,low,low,low,low,low,low,low,low,low,low,low,medium,medium,medium,medium,medium,low,low,low,low,low,low,low,low,low,low,low,low,low,low,low,low,low,medium
high,low,low,medium,high,low,low,low,low,medium,medium,low,low,low,low,medium,medium,low,low,low,low,low,low,low,low,low,low,low,low,low,medium,medium,medium,medium,medium,low,low,low,low,low,low,low,low,low,low,low,low,low,low,low,low,low,medium
high,low,low,medium,high,low,low,low,low,medium,medium,low,low,low,low,medium,medium,low,low,low,low,low,low,low,low,low,low,low,low,low,medium,medium,medium,medium,medium,low,low,low,low,low,low,low,low,low,low,low,low,low,low,low,low,low,medium
high,low,low,medium,high,low,low,low,low,medium,medium,low,low,low,low,medium,medium,low,low,low,low,low,low,low,low,low,low,low,low,low,medium,medium,medium,medium,medium,low,low,low,low,low,low,low,low,low,low,low,low,low,low,low,low,low,medium
high,low,low,medium,high,low,low,low,low,medium,medium,low,low,low,low,medium,medium,low,low,low,low,low,low,low,low,low,low,low,low,low,medium,medium,medium,medium,medium,low,low,low,low,low,low,low,low,low,low,low,low,low,low,low,low,low,medium
medium,low,low,medium,high,low,low,low,low,high,high,low,low,low,low,medium,medium,low,low,low,low,low,low,low,low,low,low,low,low,low,medium,medium,medium,medium,medium,low,low,low,low,low,low,low,low,low,low,low,low,low,low,low,low,low,high
high,low,low,medium,high,low,low,low,low,high,high,low,low,low,low,medium,medium,low,low,low,low,low,low,low,low,low,low,low,low,low,medium,medium,medium,medium,medium,low,low,low,low,low,low,low,low,low,low,low,low,low,low,low,low,low,high
medium,low,low,medium,high,low,low,low,low,high,high,low,low,low,low,medium,medium,low,low,low,low,low,low,low,low,low,low,low,low,low,medium,medium,medium,medium,medium,low,low,low,low,low,low,low,low,low,low,low,low,low,low,low,low,low,high
high,low,low,medium,medium,low,low,low,low,medium,medium,low,low,low,low,medium,medium,low,low,low,low,low,low,low,low,low,low,low,low,low,medium,medium,medium,medium,medium,low,low,low,low,low,low,low,low,low,low,low,low,low,low,low,low,low,high
high,low,low,medium,high,low,low,low,low,high,high,low,low,low,low,medium,medium,low,low,low,low,low,low,low,low,low,low,low,low,low,medium,medium,medium,medium,medium,low,low,low,low,low,low,low,low,low,low,low,low,low,low,low,low,low,high
medium,low,low,medium,high,low,low,low,low,high,high,low,low,low,low,medium,medium,low,low,low,low,low,low,low,low,low,low,low,low,low,medium,medium,medium,medium,medium,low,low,low,low,low,low,low,low,low,low,low,low,low,low,low,low,low,high
low,low,low,medium,high,low,low,low,low,high,high,low,low,low,low,medium,medium,low,low,low,low,low,low,low,low,low,low,low,low,low,medium,medium,medium,medium,medium,low,low,low,low,low,low,low,low,low,low,low,low,low,low,low,low,low,high
low,low,low,medium,low,low,low,low,low,high,high,low,low,low,low,medium,medium,low,low,low,low,low,low,low,low,low,low,low,low,low,medium,medium,medium,medium,medium,low,low,low,low,low,low,low,low,low,low,low,low,low,low,low,low,low,high
medium,low,low,low,high,low,low,low,low,high,high,low,low,low,low,medium,medium,low,low,low,low,low,low,low,low,low,low,low,low,low,medium,medium,medium,medium,medium,low,low,low,low,low,low,low,low,low,low,low,low,low,low,low,low,low,high
medium,low,low,low,high,low,low,low,low,high,high,low,low,low,low,medium,medium,low,low,low,low,low,low,low,low,low,low,low,low,low,medium,medium,medium,medium,medium,low,low,low,low,low,low,low,low,low,low,low,low,low,low,low,low,low,high
high,low,low,low,high,low,low,low,low,high,high,low,low,low,low,medium,medium,low,low,low,low,low,low,low,low,low,low,low,low,low,medium,medium,medium,medium,medium,low,low,low,low,low,low,low,low,low,low,low,low,low,low,low,low,low,high
medium,low,low,low,high,low,low,low,low,high,high,low,low,low,low,medium,medium,low,low,low,low,low,low,low,low,low,low,low,low,low,medium,medium,medium,medium,medium,low,low,low,low,low,low,low,low,low,low,low,low,low,low,low,low,low,high
medium,low,low,low,high,low,low,low,low,high,high,low,low,low,low,medium,medium,low,low,low,low,low,low,low,low,low,low,low,low,low,medium,medium,medium,medium,medium,low,low,low,low,low,low,low,low,low,low,low,low,low,low,low,low,low,high
medium,low,low,low,high,low,low,low,low,high,high,low,low,low,low,medium,medium,low,low,low,low,low,low,low,low,low,low,low,low,low,medium,medium,medium,medium,medium,low,low,low,low,low,low,low,low,low,low,low,low,low,low,low,low,low,high
medium,low,low,low,high,low,low,low,low,high,high,low,low,low,low,medium,medium,low,low,low,low,low,low,low,low,low,low,low,low,low,medium,medium,medium,medium,medium,low,low,low,low,low,low,low,low,low,low,low,low,low,low,low,low,low,high
medium,low,low,low,high,low,low,low,low,high,high,low,low,low,low,medium,medium,low,low,low,low,low,low,low,low,low,low,low,low,low,medium,medium,medium,medium,medium,low,low,low,low,low,low,low,low,low,low,low,low,low,low,low,low,low,high
medium,low,low,low,high,low,low,low,low,high,high,low,low,low,low,medium,medium,low,low,low,low,low,low,low,low,low,low,low,low,low,medium,medium,medium,medium,medium,low,low,low,low,low,low,low,low,low,low,low,low,low,low,low,low,low,high
medium,low,low,low,high,low,low,low,low,high,high,low,low,low,low,medium,medium,low,low,low,low,low,low,low,low,low,low,low,low,low,medium,medium,medium,medium,medium,low,low,low,low,low,low,low,low,low,low,low,low,low,low,low,low,low,high
medium,low,low,low,high,low,low,low,low,high,high,low,low,low,low,medium,medium,low,low,low,low,low,low,low,low,low,low,low,low,low,medium,medium,medium,medium,medium,low,low,low,low,low,low,low,low,low,low,low,low,low,low,low,low,low,high
medium,low,low,low,high,low,low,low,low,high,high,low,low,low,low,medium,medium,low,low,low,low,low,low,low,low,low,low,low,low,low,medium,medium,medium,medium,medium,low,low,low,low,low,low,low,low,low,low,low,low,low,low,low,low,low,high
medium,low,low,low,high,low,low,low,low,high,high,low,low,low,low,medium,medium,low,low,low,low,low,low,low,low,low,low,low,low,low,medium,medium,medium,medium,medium,low,low,low,low,low,low,low,low,low,low,low,low,low,low,low,low,low,high
medium,low,medium,low,high,low,low,low,low,high,high,low,low,low,low,medium,medium,low,low,low,low,low,low,low,low,low,low,low,low,low,medium,medium,medium,medium,medium,low,low,low,low,low,low,low,low,low,low,low,low,low,low,low,low,low,high
high,low,medium,low,high,low,low,low,low,high,high,low,low,low,low,medium,medium,low,low,low,low,low,low,low,low,low,low,low,low,low,medium,medium,medium,medium,medium,low,low,low,low,low,low,low,low,low,low,low,low,low,low,low,low,low,high
high,low,high,low,high,low,low,low,low,high,high,low,low,low,low,medium,medium,low,low,low,low,low,low,low,low,low,low,low,low,low,medium,medium,medium,medium,medium,low,low,low,low,low,low,low,low,low,low,low,low,low,low,low,low,low,high
high,low,high,low,high,low,low,low,low,high,high,low,low,low,low,medium,medium,low,low,low,low,low,low,low,low,low,low,low,low,low,medium,medium,medium,medium,medium,low,low,low,low,low,low,low,low,low,low,low,low,low,low,low,low,low,high
high,low,high,low,high,low,low,low,low,high,high,low,low,low,low,medium,medium,low,low,low,low,low,low,low,low,low,low,low,low,low,medium,medium,medium,medium,medium,low,low,low,low,low,low,low,low,low,low,low,low,low,low,low,low,low,high
medium,low,high,low,high,low,low,low,low,medium,medium,low,low,low,low,medium,medium,low,low,low,low,low,low,low,low,low,low,low,low,low,medium,medium,medium,medium,medium,low,low,low,low,low,low,low,low,low,low,low,low,low,low,low,low,low,high
medium,low,high,low,high,low,low,low,low,medium,medium,low,low,low,low,medium,medium,low,low,low,low,low,low,low,low,low,low,low,low,low,medium,medium,medium,medium,medium,low,low,low,low,low,low,low,low,low,low,low,low,low,low,low,low,low,high
medium,low,high,low,high,low,low,low,low,low,low,low,low,low,low,medium,medium,low,low,low,low,low,low,low,low,low,low,low,low,low,medium,medium,medium,medium,medium,low,low,low,low,low,low,low,low,low,low,low,low,low,low,low,low,low,high
high,low,high,low,high,low,low,low,low,low,low,low,low,low,low,medium,medium,low,low,low,low,low,low,low,low,low,low,low,low,low,medium,medium,medium,medium,medium,low,low,low,low,low,low,low,low,low,low,low,low,low,low,low,low,low,high
medium,low,medium,low,high,low,low,low,low,low,low,low,low,low,low,medium,medium,low,low,low,low,low,low,low,low,low,low,low,low,low,medium,medium,medium,medium,medium,low,low,low,low,low,low,low,low,low,low,low,low,low,low,low,low,low,high
medium,low,low,low,high,low,low,low,low,low,low,low,low,low,low,medium,medium,low,low,low,low,low,low,low,low,low,low,low,low,low,medium,medium,medium,medium,medium,low,low,low,low,low,low,low,low,low,low,low,low,low,low,low,low,low,high
high,low,medium,low,high,low,low,low,low,low,low,low,low,low,low,medium,medium,low,low,low,low,low,low,low,low,low,low,low,low,low,medium,medium,medium,medium,medium,low,low,low,low,low,low,low,low,low,low,low,low,low,low,low,low,low,medium
medium,low,high,low,high,low,low,low,low,low,low,low,low,low,low,medium,medium,low,low,low,low,low,low,low,low,low,low,low,low,low,medium,medium,medium,medium,medium,low,low,low,low,low,low,low,low,low,low,low,low,low,low,low,low,low,low
medium,low,high,low,high,low,low,low,low,low,low,low,low,low,low,medium,medium,low,low,low,low,low,low,low,low,low,low,low,low,low,medium,medium,medium,medium,medium,low,low,low,low,low,low,low,low,low,low,low,low,low,low,low,low,low,low
medium,low,high,low,high,low,low,low,low,low,low,low,low,low,low,medium,medium,low,low,low,low,low,low,low,low,low,low,low,low,low,medium,medium,medium,medium,medium,low,low,low,low,low,low,low,low,low,low,low,low,low,low,low,low,low,low
medium,low,high,low,high,low,low,low,low,low,low,low,low,low,low,medium,medium,low,low,low,low,low,low,low,low,low,low,low,low,low,medium,medium,medium,medium,medium,low,low,low,low,low,low,low,low,low,low,low,low,low,low,low,low,low,low
high,low,high,low,high,low,low,low,low,low,low,low,low,low,low,medium,medium,low,low,low,low,low,low,low,low,low,low,low,low,low,medium,medium,medium,medium,medium,low,low,low,low,low,low,low,low,low,low,low,low,low,low,low,low,low,low
medium,low,high,low,high,low,low,low,low,low,low,low,low,low,low,medium,medium,low,low,low,low,low,low,low,low,low,low,low,low,low,medium,medium,medium,medium,medium,low,low,low,low,low,low,low,low,low,low,low,low,low,low,low,low,low,low
medium,low,high,low,high,low,low,low,low,low,low,low,low,low,low,medium,medium,low,low,low,low,low,low,low,low,low,low,low,low,low,medium,medium,medium,medium,medium,low,low,low,low,low,low,low,low,low,low,low,low,low,low,low,low,low,low
medium,low,high,low,high,low,low,low,low,low,low,low,low,low,low,medium,medium,low,low,low,low,low,low,low,low,low,low,low,low,low,medium,medium,medium,medium,medium,low,low,low,low,low,low,low,low,low,low,low,low,low,low,low,low,low,low
high,low,high,low,high,low,low,low,low,low,low,low,low,low,low,medium,medium,low,low,low,low,low,low,low,low,low,low,low,low,low,medium,medium,medium,medium,medium,low,low,low,low,low,low,low,low,low,low,low,low,low,low,low,low,low,low
medium,low,high,low,high,low,low,low,low,low,low,low,low,low,low,medium,medium,low,low,low,low,low,low,low,low,low,low,low,low,low,medium,medium,medium,medium,medium,low,low,low,low,low,low,low,low,low,low,low,low,low,low,low,low,low,low
high,low,high,low,high,low,low,low,low,low,low,low,low,low,low,medium,medium,low,low,low,low,low,low,low,low,low,low,low,low,low,medium,medium,medium,medium,medium,low,low,low,low,low,low,low,low,low,low,low,low,low,low,low,low,low,low
high,low,high,low,high,low,low,low,low,low,low,low,low,low,low,medium,medium,low,low,low,low,low,low,low,low,low,low,low,low,low,medium,medium,medium,medium,medium,low,low,low,low,low,low,low,low,low,low,low,low,low,low,low,low,low,low
high,low,high,low,high,low,low,low,low,low,low,low,low,low,low,medium,medium,low,low,low,low,low,low,low,low,low,low,low,low,low,medium,medium,medium,medium,medium,low,low,low,low,low,low,low,low,low,low,low,low,low,low,low,low,low,low
high,low,high,low,high,low,low,low,low,low,low,low,low,low,low,medium,medium,low,low,low,low,low,low,low,low,low,low,low,low,low,medium,medium,medium,medium,medium,low,low,low,low,low,low,low,low,low,low,low,low,low,low,low,low,low,low
medium,low,high,low,high,low,low,low,low,low,low,low,low,low,low,medium,medium,low,low,low,low,low,low,low,low,low,low,low,low,low,medium,medium,medium,medium,medium,low,low,low,low,low,low,low,low,low,low,low,low,low,low,low,low,low,low
medium,low,high,low,high,low,low,low,low,low,low,low,low,low,low,medium,medium,low,low,low,low,low,low,low,low,low,low,low,low,low,medium,medium,medium,medium,medium,low,low,low,low,low,low,low,low,low,low,low,low,low,low,low,low,low,low
high,low,high,low,high,low,low,low,low,low,low,low,low,low,low,medium,medium,low,low,low,low,low,low,low,low,low,low,low,low,low,medium,medium,medium,medium,medium,low,low,low,low,low,low,low,low,low,low,low,low,low,low,low,low,low,low
medium,low,high,low,high,low,low,low,low,low,low,low,low,low,low,medium,medium,low,low,low,low,low,low,low,low,low,low,low,low,low,medium,medium,medium,medium,medium,low,low,low,low,low,low,low,low,low,low,low,low,low,low,low,low,low,low
medium,low,high,low,high,low,low,low,low,low,low,low,low,low,low,medium,medium,low,low,low,low,low,low,low,low,low,low,low,low,low,medium,medium,medium,medium,medium,low,low,low,low,low,low,low,low,low,low,low,low,low,low,low,low,low,low
medium,low,high,low,high,low,low,low,low,low,low,low,low,low,low,medium,medium,low,low,low,low,low,low,low,low,low,low,low,low,low,medium,medium,medium,medium,medium,low,low,low,low,low,low,low,low,low,low,low,low,low,low,low,low,low,low
medium,low,high,low,high,low,low,low,low,low,low,low,low,low,low,medium,medium,low,low,low,low,low,low,low,low,low,low,low,low,low,medium,medium,medium,medium,medium,low,low,low,low,low,low,low,low,low,low,low,low,low,low,low,low,low,low
medium,low,high,low,high,low,low,low,low,low,low,low,low,low,low,medium,medium,low,low,low,low,low,low,low,low,low,low,low,low,low,medium,medium,medium,medium,medium,low,low,low,low,low,low,low,low,low,low,low,low,low,low,low,low,low,low
