@relation 'fligth4-b-weka.filters.unsupervised.attribute.Remove-V-R2-53,131-weka.filters.unsupervised.attribute.Discretize-F-B3-M-1.0-Rfirst-last'

@attribute aileron {low,medium,high}
@attribute aileron-trim {low}
@attribute elevator {low,medium,high}
@attribute elevator-trim {low,medium,high}
@attribute rudder {low,medium,high}
@attribute rudder-trim {low}
@attribute flaps {low}
@attribute slats {low}
@attribute speedbrake {low}
@attribute throttle {low,medium,high}
@attribute throttle1 {low,medium,high}
@attribute starter {low}
@attribute starter1 {low}
@attribute fuel-pump {low}
@attribute fuel-pump1 {low}
@attribute cutoff {low,medium}
@attribute cutoff1 {low,medium}
@attribute mixture {low}
@attribute mixture1 {low}
@attribute propeller-pitch {low}
@attribute propeller-pitch1 {low}
@attribute magnetos {low}
@attribute magnetos1 {low}
@attribute ignition {low}
@attribute ignition1 {low}
@attribute brake-left {low}
@attribute brake-right {low}
@attribute brake-parking {low}
@attribute steering {low}
@attribute gear-down {low,medium}
@attribute gear-position {low,medium}
@attribute gear-position1 {low,medium}
@attribute gear-position2 {low,medium}
@attribute gear-position3 {low,medium}
@attribute gear-position4 {low,medium}
@attribute engine-pump {low}
@attribute engine-pump1 {low}
@attribute electric-pump {low}
@attribute electric-pump1 {low}
@attribute battery-switch {low,medium}
@attribute external-power {low}
@attribute APU-generator {low}
@attribute engage {low}
@attribute heading-select {low}
@attribute altitude-select {low}
@attribute bank-angle-select {low}
@attribute vertical-speed-select {low}
@attribute speed-select {low}
@attribute apu-gen-switch {low,medium}
@attribute l-bus-tie-sw {low,medium}
@attribute r-bus-tie-sw {low,medium}
@attribute l-bus-gen-sw {low,medium}
@attribute speed-north-fps {low,medium,high}

@data
medium,low,high,high,medium,low,low,low,low,low,low,low,low,low,low,medium,medium,low,low,low,low,low,low,low,low,low,low,low,low,medium,low,low,low,low,low,low,low,low,low,low,low,low,low,low,low,low,low,low,low,low,low,low,high
high,low,medium,high,medium,low,low,low,low,low,low,low,low,low,low,medium,medium,low,low,low,low,low,low,low,low,low,low,low,low,medium,low,low,low,low,low,low,low,low,low,low,low,low,low,low,low,low,low,low,low,low,low,low,high
high,low,low,high,medium,low,low,low,low,low,low,low,low,low,low,medium,medium,low,low,low,low,low,low,low,low,low,low,low,low,medium,low,low,low,low,low,low,low,low,low,low,low,low,low,low,low,low,low,low,low,low,low,low,high
low,low,low,high,medium,low,low,low,low,low,low,low,low,low,low,medium,medium,low,low,low,low,low,low,low,low,low,low,low,low,low,low,low,low,low,low,low,low,low,low,low,low,low,low,low,low,low,low,low,low,low,low,low,high
medium,low,low,high,medium,low,low,low,low,medium,medium,low,low,low,low,medium,medium,low,low,low,low,low,low,low,low,low,low,low,low,low,low,low,low,low,low,low,low,low,low,low,low,low,low,low,low,low,low,low,low,low,low,low,high
low,low,low,high,low,low,low,low,low,high,high,low,low,low,low,medium,medium,low,low,low,low,low,low,low,low,low,low,low,low,low,low,low,low,low,low,low,low,low,low,low,low,low,low,low,low,low,low,low,low,low,low,low,high
low,low,high,high,low,low,low,low,low,high,high,low,low,low,low,medium,medium,low,low,low,low,low,low,low,low,low,low,low,low,low,low,low,low,low,low,low,low,low,low,low,low,low,low,low,low,low,low,low,low,low,low,low,high
low,low,high,high,low,low,low,low,low,high,high,low,low,low,low,medium,medium,low,low,low,low,low,low,low,low,low,low,low,low,low,low,low,low,low,low,low,low,low,low,low,low,low,low,low,low,low,low,low,low,low,low,low,high
medium,low,high,high,low,low,low,low,low,high,high,low,low,low,low,medium,medium,low,low,low,low,low,low,low,low,low,low,low,low,low,low,low,low,low,low,low,low,low,low,low,low,low,low,low,low,low,low,low,low,low,low,low,high
low,low,high,high,low,low,low,low,low,high,high,low,low,low,low,medium,medium,low,low,low,low,low,low,low,low,low,low,low,low,low,low,low,low,low,low,low,low,low,low,low,low,low,low,low,low,low,low,low,low,low,low,low,high
medium,low,high,high,low,low,low,low,low,low,low,low,low,low,low,medium,medium,low,low,low,low,low,low,low,low,low,low,low,low,low,low,low,low,low,low,low,low,low,low,low,low,low,low,low,low,low,low,low,low,low,low,low,high
low,low,high,high,low,low,low,low,low,low,low,low,low,low,low,medium,medium,low,low,low,low,low,low,low,low,low,low,low,low,low,low,low,low,low,low,low,low,low,low,low,low,low,low,low,low,low,low,low,low,low,low,low,high
low,low,high,high,low,low,low,low,low,low,low,low,low,low,low,medium,medium,low,low,low,low,low,low,low,low,low,low,low,low,low,low,low,low,low,low,low,low,low,low,low,low,low,low,low,low,low,low,low,low,low,low,low,high
high,low,high,high,low,low,low,low,low,low,low,low,low,low,low,medium,medium,low,low,low,low,low,low,low,low,low,low,low,low,low,low,low,low,low,low,low,low,low,low,low,low,low,low,low,low,low,low,low,low,low,low,low,high
high,low,high,high,low,low,low,low,low,low,low,low,low,low,low,medium,medium,low,low,low,low,low,low,low,low,low,low,low,low,low,low,low,low,low,low,low,low,low,low,low,low,low,low,low,low,low,low,low,low,low,low,low,high
high,low,high,high,medium,low,low,low,low,low,low,low,low,low,low,medium,medium,low,low,low,low,low,low,low,low,low,low,low,low,low,low,low,low,low,low,low,low,low,low,low,low,low,low,low,low,low,low,low,low,low,low,low,high
high,low,high,high,medium,low,low,low,low,low,low,low,low,low,low,medium,medium,low,low,low,low,low,low,low,low,low,low,low,low,low,low,low,low,low,low,low,low,low,low,low,low,low,low,low,low,low,low,low,low,low,low,low,high
medium,low,high,high,medium,low,low,low,low,low,low,low,low,low,low,medium,medium,low,low,low,low,low,low,low,low,low,low,low,low,low,low,low,low,low,low,low,low,low,low,low,low,low,low,low,low,low,low,low,low,low,low,low,high
high,low,high,high,medium,low,low,low,low,low,low,low,low,low,low,medium,medium,low,low,low,low,low,low,low,low,low,low,low,low,low,low,low,low,low,low,low,low,low,low,low,low,low,low,low,low,low,low,low,low,low,low,low,high
high,low,high,high,medium,low,low,low,low,medium,medium,low,low,low,low,medium,medium,low,low,low,low,low,low,low,low,low,low,low,low,low,low,low,low,low,low,low,low,low,low,low,low,low,low,low,low,low,low,low,low,low,low,low,high
high,low,high,high,medium,low,low,low,low,medium,medium,low,low,low,low,medium,medium,low,low,low,low,low,low,low,low,low,low,low,low,low,low,low,low,low,low,low,low,low,low,low,low,low,low,low,low,low,low,low,low,low,low,low,high
high,low,high,high,medium,low,low,low,low,medium,medium,low,low,low,low,medium,medium,low,low,low,low,low,low,low,low,low,low,low,low,low,low,low,low,low,low,low,low,low,low,low,low,low,low,low,low,low,low,low,low,low,low,low,high
high,low,high,high,medium,low,low,low,low,low,low,low,low,low,low,medium,medium,low,low,low,low,low,low,low,low,low,low,low,low,low,medium,low,low,low,low,low,low,low,low,low,low,low,low,low,low,low,low,low,low,low,low,low,high
high,low,high,high,medium,low,low,low,low,low,low,low,low,low,low,medium,medium,low,low,low,low,low,low,low,low,low,low,low,low,low,medium,medium,medium,medium,medium,low,low,low,low,low,low,low,low,low,low,low,low,low,low,low,low,low,high
medium,low,high,high,medium,low,low,low,low,low,low,low,low,low,low,medium,medium,low,low,low,low,low,low,low,low,low,low,low,low,low,medium,medium,medium,medium,medium,low,low,low,low,low,low,low,low,low,low,low,low,low,low,low,low,low,high
high,low,high,high,medium,low,low,low,low,low,low,low,low,low,low,medium,medium,low,low,low,low,low,low,low,low,low,low,low,low,low,medium,medium,medium,medium,medium,low,low,low,low,low,low,low,low,low,low,low,low,low,low,low,low,low,high
medium,low,high,high,medium,low,low,low,low,low,low,low,low,low,low,medium,medium,low,low,low,low,low,low,low,low,low,low,low,low,low,medium,medium,medium,medium,medium,low,low,low,low,low,low,low,low,low,low,low,low,low,low,low,low,low,high
low,low,high,high,medium,low,low,low,low,low,low,low,low,low,low,medium,medium,low,low,low,low,low,low,low,low,low,low,low,low,low,medium,medium,medium,medium,medium,low,low,low,low,low,low,low,low,low,low,low,low,low,low,low,low,low,high
low,low,high,high,low,low,low,low,low,low,low,low,low,low,low,medium,medium,low,low,low,low,low,low,low,low,low,low,low,low,low,medium,medium,medium,medium,medium,low,low,low,low,low,low,low,low,low,low,low,low,low,low,low,low,low,high
medium,low,medium,high,low,low,low,low,low,low,low,low,low,low,low,medium,medium,low,low,low,low,low,low,low,low,low,low,low,low,low,medium,medium,medium,medium,medium,low,low,low,low,low,low,low,low,low,low,low,low,low,low,low,low,low,high
medium,low,medium,high,low,low,low,low,low,medium,medium,low,low,low,low,medium,medium,low,low,low,low,low,low,low,low,low,low,low,low,low,medium,medium,medium,medium,medium,low,low,low,low,low,low,low,low,low,low,low,low,low,low,low,low,low,high
low,low,medium,high,low,low,low,low,low,medium,medium,low,low,low,low,medium,medium,low,low,low,low,low,low,low,low,low,low,low,low,low,medium,medium,medium,medium,medium,low,low,low,low,low,low,low,low,low,low,low,low,low,low,low,low,low,high
low,low,medium,high,low,low,low,low,low,medium,medium,low,low,low,low,medium,medium,low,low,low,low,low,low,low,low,low,low,low,low,low,medium,medium,medium,medium,medium,low,low,low,low,low,low,low,low,low,low,low,low,low,low,low,low,low,high
low,low,medium,high,low,low,low,low,low,medium,medium,low,low,low,low,medium,medium,low,low,low,low,low,low,low,low,low,low,low,low,low,medium,medium,medium,medium,medium,low,low,low,low,low,low,low,low,low,low,low,low,low,low,low,low,low,high
medium,low,medium,high,low,low,low,low,low,medium,medium,low,low,low,low,medium,medium,low,low,low,low,low,low,low,low,low,low,low,low,low,medium,medium,medium,medium,medium,low,low,low,low,low,low,low,low,low,low,low,low,low,low,low,low,low,high
low,low,medium,high,low,low,low,low,low,medium,medium,low,low,low,low,medium,medium,low,low,low,low,low,low,low,low,low,low,low,low,low,medium,medium,medium,medium,medium,low,low,low,low,low,low,low,low,low,low,low,low,low,low,low,low,low,high
low,low,medium,high,low,low,low,low,low,medium,medium,low,low,low,low,medium,medium,low,low,low,low,low,low,low,low,low,low,low,low,low,medium,medium,medium,medium,medium,low,low,low,low,low,low,low,low,low,low,low,low,low,low,low,low,low,high
medium,low,medium,high,low,low,low,low,low,medium,medium,low,low,low,low,medium,medium,low,low,low,low,low,low,low,low,low,low,low,low,low,medium,medium,medium,medium,medium,low,low,low,low,low,low,low,low,low,low,low,low,low,low,low,low,low,high
medium,low,medium,high,low,low,low,low,low,medium,medium,low,low,low,low,medium,medium,low,low,low,low,low,low,low,low,low,low,low,low,low,medium,medium,medium,medium,medium,low,low,low,low,low,low,low,low,low,low,low,low,low,low,low,low,low,high
high,low,medium,high,low,low,low,low,low,medium,medium,low,low,low,low,medium,medium,low,low,low,low,low,low,low,low,low,low,low,low,low,medium,medium,medium,medium,medium,low,low,low,low,low,low,low,low,low,low,low,low,low,low,low,low,low,high
medium,low,medium,high,medium,low,low,low,low,medium,medium,low,low,low,low,medium,medium,low,low,low,low,low,low,low,low,low,low,low,low,low,medium,medium,medium,medium,medium,low,low,low,low,low,low,low,low,low,low,low,low,low,low,low,low,low,high
medium,low,medium,high,medium,low,low,low,low,medium,medium,low,low,low,low,medium,medium,low,low,low,low,low,low,low,low,low,low,low,low,low,medium,medium,medium,medium,medium,low,low,low,low,low,low,low,low,low,low,low,low,low,low,low,low,low,high
medium,low,medium,high,high,low,low,low,low,medium,medium,low,low,low,low,medium,medium,low,low,low,low,low,low,low,low,low,low,low,low,low,medium,medium,medium,medium,medium,low,low,low,low,low,low,low,low,low,low,low,low,low,low,low,low,low,high
medium,low,medium,high,high,low,low,low,low,medium,medium,low,low,low,low,medium,medium,low,low,low,low,low,low,low,low,low,low,low,low,low,medium,medium,medium,medium,medium,low,low,low,low,low,low,low,low,low,low,low,low,low,low,low,low,low,high
high,low,medium,high,high,low,low,low,low,medium,medium,low,low,low,low,medium,medium,low,low,low,low,low,low,low,low,low,low,low,low,low,medium,medium,medium,medium,medium,low,low,low,low,low,low,low,low,low,low,low,low,low,low,low,low,low,high
medium,low,medium,high,high,low,low,low,low,medium,medium,low,low,low,low,medium,medium,low,low,low,low,low,low,low,low,low,low,low,low,low,medium,medium,medium,medium,medium,low,low,low,low,low,low,low,low,low,low,low,low,low,low,low,low,low,high
medium,low,medium,high,high,low,low,low,low,medium,medium,low,low,low,low,medium,medium,low,low,low,low,low,low,low,low,low,low,low,low,low,medium,medium,medium,medium,medium,low,low,low,low,low,low,low,low,low,low,low,low,low,low,low,low,low,high
medium,low,medium,high,high,low,low,low,low,medium,medium,low,low,low,low,medium,medium,low,low,low,low,low,low,low,low,low,low,low,low,low,medium,medium,medium,medium,medium,low,low,low,low,low,low,low,low,low,low,low,low,low,low,low,low,low,high
high,low,medium,high,high,low,low,low,low,medium,medium,low,low,low,low,medium,medium,low,low,low,low,low,low,low,low,low,low,low,low,low,medium,medium,medium,medium,medium,low,low,low,low,low,low,low,low,low,low,low,low,low,low,low,low,low,high
medium,low,medium,high,medium,low,low,low,low,medium,medium,low,low,low,low,medium,medium,low,low,low,low,low,low,low,low,low,low,low,low,low,medium,medium,medium,medium,medium,low,low,low,low,low,low,low,low,low,low,low,low,low,low,low,low,low,high
medium,low,medium,high,medium,low,low,low,low,high,high,low,low,low,low,medium,medium,low,low,low,low,low,low,low,low,low,low,low,low,low,medium,medium,medium,medium,medium,low,low,low,low,low,low,low,low,low,low,low,low,low,low,low,low,low,high
low,low,medium,high,medium,low,low,low,low,high,high,low,low,low,low,medium,medium,low,low,low,low,low,low,low,low,low,low,low,low,low,medium,medium,medium,medium,medium,low,low,low,low,low,low,low,low,low,low,low,low,low,low,low,low,low,high
low,low,medium,high,medium,low,low,low,low,medium,medium,low,low,low,low,medium,medium,low,low,low,low,low,low,low,low,low,low,low,low,low,medium,medium,medium,medium,medium,low,low,low,low,low,low,low,low,low,low,low,low,low,low,low,low,low,high
high,low,medium,medium,medium,low,low,low,low,high,high,low,low,low,low,medium,medium,low,low,low,low,low,low,low,low,low,low,low,low,low,medium,medium,medium,medium,medium,low,low,low,low,low,low,low,low,low,low,low,low,low,low,low,low,low,high
low,low,medium,medium,low,low,low,low,low,medium,medium,low,low,low,low,medium,medium,low,low,low,low,low,low,low,low,low,low,low,low,low,medium,medium,medium,medium,medium,low,low,low,low,low,low,low,low,low,low,low,low,low,low,low,low,low,high
low,low,medium,medium,medium,low,low,low,low,high,high,low,low,low,low,medium,medium,low,low,low,low,low,low,low,low,low,low,low,low,low,medium,medium,medium,medium,medium,low,low,low,low,low,low,low,low,low,low,low,low,low,low,low,low,low,high
low,low,medium,medium,low,low,low,low,low,medium,medium,low,low,low,low,medium,medium,low,low,low,low,low,low,low,low,low,low,low,low,low,medium,medium,medium,medium,medium,low,low,low,low,low,low,low,low,low,low,low,low,low,low,low,low,low,high
low,low,medium,medium,low,low,low,low,low,medium,medium,low,low,low,low,medium,medium,low,low,low,low,low,low,low,low,low,low,low,low,low,medium,medium,medium,medium,medium,low,low,low,low,low,low,low,low,low,low,low,low,low,low,low,low,low,high
low,low,medium,medium,medium,low,low,low,low,high,high,low,low,low,low,medium,medium,low,low,low,low,low,low,low,low,low,low,low,low,low,medium,medium,medium,medium,medium,low,low,low,low,low,low,low,low,low,low,low,low,low,low,low,low,low,high
low,low,medium,medium,low,low,low,low,low,medium,medium,low,low,low,low,medium,medium,low,low,low,low,low,low,low,low,low,low,low,low,low,medium,medium,medium,medium,medium,low,low,low,low,low,low,low,low,low,low,low,low,low,low,low,low,low,high
low,low,medium,medium,low,low,low,low,low,high,high,low,low,low,low,medium,medium,low,low,low,low,low,low,low,low,low,low,low,low,low,medium,medium,medium,medium,medium,low,low,low,low,low,low,low,low,low,low,low,low,low,low,low,low,low,high
low,low,medium,medium,low,low,low,low,low,high,high,low,low,low,low,medium,medium,low,low,low,low,low,low,low,low,low,low,low,low,low,medium,medium,medium,medium,medium,low,low,low,low,low,low,low,low,low,low,low,low,low,low,low,low,low,medium
low,low,medium,medium,low,low,low,low,low,high,high,low,low,low,low,medium,medium,low,low,low,low,low,low,low,low,low,low,low,low,low,medium,medium,medium,medium,medium,low,low,low,low,low,low,low,low,low,low,low,low,low,low,low,low,low,medium
high,low,medium,medium,low,low,low,low,low,low,low,low,low,low,low,medium,medium,low,low,low,low,low,low,low,low,low,low,low,low,low,medium,medium,medium,medium,medium,low,low,low,low,low,low,low,low,low,low,low,low,low,low,low,low,low,medium
low,low,medium,medium,low,low,low,low,low,high,high,low,low,low,low,medium,medium,low,low,low,low,low,low,low,low,low,low,low,low,low,medium,medium,medium,medium,medium,low,low,low,low,low,low,low,low,low,low,low,low,low,low,low,low,low,medium
high,low,low,medium,medium,low,low,low,low,low,low,low,low,low,low,medium,medium,low,low,low,low,low,low,low,low,low,low,low,low,low,medium,medium,medium,medium,medium,low,low,low,low,low,low,low,low,low,low,low,low,low,low,low,low,low,medium
high,low,low,medium,medium,low,low,low,low,low,low,low,low,low,low,medium,medium,low,low,low,low,low,low,low,low,low,low,low,low,low,medium,medium,medium,medium,medium,low,low,low,low,low,low,low,low,low,low,low,low,low,low,low,low,low,medium
high,low,low,medium,high,low,low,low,low,medium,medium,low,low,low,low,medium,medium,low,low,low,low,low,low,low,low,low,low,low,low,low,medium,medium,medium,medium,medium,low,low,low,low,low,low,low,low,low,low,low,low,low,low,low,low,low,medium
high,low,low,medium,medium,low,low,low,low,low,low,low,low,low,low,medium,medium,low,low,low,low,low,low,low,low,low,low,low,low,low,medium,medium,medium,medium,medium,low,low,low,low,low,low,low,low,low,low,low,low,low,low,low,low,low,medium
high,low,low,medium,high,low,low,low,low,medium,medium,low,low,low,low,medium,medium,low,low,low,low,low,low,low,low,low,low,low,low,low,medium,medium,medium,medium,medium,low,low,low,low,low,low,low,low,low,low,low,low,low,low,low,low,low,medium
high,low,low,medium,high,low,low,low,low,high,high,low,low,low,low,medium,medium,low,low,low,low,low,low,low,low,low,low,low,low,low,medium,medium,medium,medium,medium,low,low,low,low,low,low,low,low,low,low,low,low,low,low,low,low,low,medium
high,low,low,medium,high,low,low,low,low,high,high,low,low,low,low,medium,medium,low,low,low,low,low,low,low,low,low,low,low,low,low,medium,medium,medium,medium,medium,low,low,low,low,low,low,low,low,low,low,low,low,low,low,low,low,low,medium
high,low,low,medium,high,low,low,low,low,high,high,low,low,low,low,medium,medium,low,low,low,low,low,low,low,low,low,low,low,low,low,medium,medium,medium,medium,medium,low,low,low,low,low,low,low,low,low,low,low,low,low,low,low,low,low,medium
high,low,low,medium,medium,low,low,low,low,high,high,low,low,low,low,medium,medium,low,low,low,low,low,low,low,low,low,low,low,low,low,medium,medium,medium,medium,medium,low,low,low,low,low,low,low,low,low,low,low,low,low,low,low,low,low,medium
high,low,low,medium,high,low,low,low,low,high,high,low,low,low,low,medium,medium,low,low,low,low,low,low,low,low,low,low,low,low,low,medium,medium,medium,medium,medium,low,low,low,low,low,low,low,low,low,low,low,low,low,low,low,low,low,medium
low,low,low,medium,medium,low,low,low,low,high,high,low,low,low,low,medium,medium,low,low,low,low,low,low,low,low,low,low,low,low,low,medium,medium,medium,medium,medium,low,low,low,low,low,low,low,low,low,low,low,low,low,low,low,low,low,medium
low,low,low,medium,medium,low,low,low,low,medium,medium,low,low,low,low,medium,medium,low,low,low,low,low,low,low,low,low,low,low,low,low,medium,medium,medium,medium,medium,low,low,low,low,low,low,low,low,low,low,low,low,low,low,low,low,low,medium
high,low,low,medium,medium,low,low,low,low,high,high,low,low,low,low,medium,medium,low,low,low,low,low,low,low,low,low,low,low,low,low,medium,medium,medium,medium,medium,low,low,low,low,low,low,low,low,low,low,low,low,low,low,low,low,low,medium
high,low,low,medium,medium,low,low,low,low,high,high,low,low,low,low,medium,medium,low,low,low,low,low,low,low,low,low,low,low,low,low,medium,medium,medium,medium,medium,low,low,low,low,low,low,low,low,low,low,low,low,low,low,low,low,low,medium
low,low,low,medium,low,low,low,low,low,medium,medium,low,low,low,low,medium,medium,low,low,low,low,low,low,low,low,low,low,low,low,low,medium,medium,medium,medium,medium,low,low,low,low,low,low,low,low,low,low,low,low,low,low,low,low,low,medium
low,low,low,medium,low,low,low,low,low,medium,medium,low,low,low,low,medium,medium,low,low,low,low,low,low,low,low,low,low,low,low,low,medium,medium,medium,medium,medium,low,low,low,low,low,low,low,low,low,low,low,low,low,low,low,low,low,medium
low,low,low,medium,low,low,low,low,low,medium,medium,low,low,low,low,medium,medium,low,low,low,low,low,low,low,low,low,low,low,low,low,medium,medium,medium,medium,medium,low,low,low,low,low,low,low,low,low,low,low,low,low,low,low,low,low,medium
low,low,low,medium,low,low,low,low,low,medium,medium,low,low,low,low,medium,medium,low,low,low,low,low,low,low,low,low,low,low,low,low,medium,medium,medium,medium,medium,low,low,low,low,low,low,low,low,low,low,low,low,low,low,low,low,low,medium
low,low,low,medium,low,low,low,low,low,medium,medium,low,low,low,low,medium,medium,low,low,low,low,low,low,low,low,low,low,low,low,low,medium,medium,medium,medium,medium,low,low,low,low,low,low,low,low,low,low,low,low,low,low,low,low,low,medium
low,low,low,medium,low,low,low,low,low,high,high,low,low,low,low,medium,medium,low,low,low,low,low,low,low,low,low,low,low,low,low,medium,medium,medium,medium,medium,low,low,low,low,low,low,low,low,low,low,low,low,low,low,low,low,low,medium
low,low,low,medium,low,low,low,low,low,high,high,low,low,low,low,medium,medium,low,low,low,low,low,low,low,low,low,low,low,low,low,medium,medium,medium,medium,medium,low,low,low,low,low,low,low,low,low,low,low,low,low,low,low,low,low,medium
low,low,low,medium,low,low,low,low,low,high,high,low,low,low,low,medium,medium,low,low,low,low,low,low,low,low,low,low,low,low,low,medium,medium,medium,medium,medium,low,low,low,low,low,low,low,low,low,low,low,low,low,low,low,low,low,medium
high,low,low,medium,low,low,low,low,low,high,high,low,low,low,low,medium,medium,low,low,low,low,low,low,low,low,low,low,low,low,low,medium,medium,medium,medium,medium,low,low,low,low,low,low,low,low,low,low,low,low,low,low,low,low,low,medium
high,low,low,medium,low,low,low,low,low,high,high,low,low,low,low,medium,medium,low,low,low,low,low,low,low,low,low,low,low,low,low,medium,medium,medium,medium,medium,low,low,low,low,low,low,low,low,low,low,low,low,low,low,low,low,low,medium
high,low,low,medium,medium,low,low,low,low,high,high,low,low,low,low,medium,medium,low,low,low,low,low,low,low,low,low,low,low,low,low,medium,medium,medium,medium,medium,low,low,low,low,low,low,low,low,low,low,low,low,low,low,low,low,low,low
low,low,low,medium,low,low,low,low,low,high,high,low,low,low,low,medium,medium,low,low,low,low,low,low,low,low,low,low,low,low,low,medium,medium,medium,medium,medium,low,low,low,low,low,low,low,low,low,low,low,low,low,low,low,low,low,low
high,low,low,medium,high,low,low,low,low,medium,medium,low,low,low,low,medium,medium,low,low,low,low,low,low,low,low,low,low,low,low,low,medium,medium,medium,medium,medium,low,low,low,low,low,low,low,low,low,low,low,low,low,low,low,low,low,low
high,low,low,medium,high,low,low,low,low,medium,medium,low,low,low,low,medium,medium,low,low,low,low,low,low,low,low,low,low,low,low,low,medium,medium,medium,medium,medium,low,low,low,low,low,low,low,low,low,low,low,low,low,low,low,low,low,low
high,low,low,medium,high,low,low,low,low,medium,medium,low,low,low,low,medium,medium,low,low,low,low,low,low,low,low,low,low,low,low,low,medium,medium,medium,medium,medium,low,low,low,low,low,low,low,low,low,low,low,low,low,low,low,low,low,low
high,low,low,medium,medium,low,low,low,low,medium,medium,low,low,low,low,medium,medium,low,low,low,low,low,low,low,low,low,low,low,low,low,medium,medium,medium,medium,medium,low,low,low,low,low,low,low,low,low,low,low,low,low,low,low,low,low,low
high,low,low,medium,high,low,low,low,low,medium,medium,low,low,low,low,medium,medium,low,low,low,low,low,low,low,low,low,low,low,low,low,medium,medium,medium,medium,medium,low,low,low,low,low,low,low,low,low,low,low,low,low,low,low,low,low,low
high,low,low,medium,medium,low,low,low,low,medium,medium,low,low,low,low,medium,medium,low,low,low,low,low,low,low,low,low,low,low,low,low,medium,medium,medium,medium,medium,low,low,low,low,low,low,low,low,low,low,low,low,low,low,low,low,low,low
high,low,low,low,medium,low,low,low,low,medium,medium,low,low,low,low,medium,medium,low,low,low,low,low,low,low,low,low,low,low,low,low,medium,medium,medium,medium,medium,low,low,low,low,low,low,low,low,low,low,low,low,low,low,low,low,low,low
low,low,low,medium,high,low,low,low,low,high,high,low,low,low,low,medium,medium,low,low,low,low,low,low,low,low,low,low,low,low,low,medium,medium,medium,medium,medium,low,low,low,low,low,low,low,low,low,low,low,low,low,low,low,low,low,low
low,low,low,medium,medium,low,low,low,low,high,high,low,low,low,low,medium,medium,low,low,low,low,low,low,low,low,low,low,low,low,low,medium,medium,medium,medium,medium,low,low,low,low,low,low,low,low,low,low,low,low,low,low,low,low,low,low
high,low,low,low,high,low,low,low,low,high,high,low,low,low,low,medium,medium,low,low,low,low,low,low,low,low,low,low,low,low,low,medium,medium,medium,medium,medium,low,low,low,low,low,low,low,low,low,low,low,low,low,low,low,low,low,medium
high,low,low,low,high,low,low,low,low,high,high,low,low,low,low,medium,medium,low,low,low,low,low,low,low,low,low,low,low,low,low,medium,medium,medium,medium,medium,low,low,low,low,low,low,low,low,low,low,low,low,low,low,low,low,low,medium
high,low,low,low,high,low,low,low,low,high,high,low,low,low,low,medium,medium,low,low,low,low,low,low,low,low,low,low,low,low,low,medium,medium,medium,medium,medium,low,low,low,low,low,low,low,low,low,low,low,low,low,low,low,low,low,medium
high,low,low,low,high,low,low,low,low,high,high,low,low,low,low,medium,medium,low,low,low,low,low,low,low,low,low,low,low,low,low,medium,medium,medium,medium,medium,low,low,low,low,low,low,low,low,low,low,low,low,low,low,low,low,low,medium
medium,low,low,low,high,low,low,low,low,high,high,low,low,low,low,medium,medium,low,low,low,low,low,low,low,low,low,low,low,low,low,medium,medium,medium,medium,medium,low,low,low,low,low,low,low,low,low,low,low,low,low,low,low,low,low,medium
high,low,low,low,high,low,low,low,low,high,high,low,low,low,low,medium,medium,low,low,low,low,low,low,low,low,low,low,low,low,low,medium,medium,medium,medium,medium,low,low,low,low,low,low,low,low,low,low,low,low,low,low,low,low,low,medium
high,low,low,low,high,low,low,low,low,high,high,low,low,low,low,medium,medium,low,low,low,low,low,low,low,low,low,low,low,low,low,medium,medium,medium,medium,medium,low,low,low,low,low,low,low,low,low,low,low,low,low,low,low,low,low,medium
high,low,low,low,high,low,low,low,low,high,high,low,low,low,low,medium,medium,low,low,low,low,low,low,low,low,low,low,low,low,low,medium,medium,medium,medium,medium,low,low,low,low,low,low,low,low,low,low,low,low,low,low,low,low,low,medium
high,low,low,low,high,low,low,low,low,high,high,low,low,low,low,medium,medium,low,low,low,low,low,low,low,low,low,low,low,low,low,medium,medium,medium,medium,medium,low,low,low,low,low,low,low,low,low,low,low,low,low,low,low,low,low,medium
high,low,low,low,high,low,low,low,low,high,high,low,low,low,low,medium,medium,low,low,low,low,low,low,low,low,low,low,low,low,low,medium,medium,medium,medium,medium,low,low,low,low,low,low,low,low,low,low,low,low,low,low,low,low,low,medium
high,low,low,low,high,low,low,low,low,high,high,low,low,low,low,medium,medium,low,low,low,low,low,low,low,low,low,low,low,low,low,medium,medium,medium,medium,medium,low,low,low,low,low,low,low,low,low,low,low,low,low,low,low,low,low,medium
high,low,low,low,high,low,low,low,low,high,high,low,low,low,low,medium,medium,low,low,low,low,low,low,low,low,low,low,low,low,low,medium,medium,medium,medium,medium,low,low,low,low,low,low,low,low,low,low,low,low,low,low,low,low,low,medium
high,low,low,low,high,low,low,low,low,high,high,low,low,low,low,medium,medium,low,low,low,low,low,low,low,low,low,low,low,low,low,medium,medium,medium,medium,medium,low,low,low,low,low,low,low,low,low,low,low,low,low,low,low,low,low,low
high,low,medium,low,high,low,low,low,low,high,high,low,low,low,low,medium,medium,low,low,low,low,low,low,low,low,low,low,low,low,low,medium,medium,medium,medium,medium,low,low,low,low,low,low,low,low,low,low,low,low,low,low,low,low,low,low
high,low,medium,low,high,low,low,low,low,high,high,low,low,low,low,medium,medium,low,low,low,low,low,low,low,low,low,low,low,low,low,medium,medium,medium,medium,medium,low,low,low,low,low,low,low,low,low,low,low,low,low,low,low,low,low,low
high,low,high,low,high,low,low,low,low,high,high,low,low,low,low,medium,medium,low,low,low,low,low,low,low,low,low,low,low,low,low,medium,medium,medium,medium,medium,low,low,low,low,low,low,low,low,low,low,low,low,low,low,low,low,low,low
high,low,high,low,high,low,low,low,low,high,high,low,low,low,low,medium,medium,low,low,low,low,low,low,low,low,low,low,low,low,low,medium,medium,medium,medium,medium,low,low,low,low,low,low,low,low,low,low,low,low,low,low,low,low,low,low
high,low,high,low,high,low,low,low,low,high,high,low,low,low,low,medium,medium,low,low,low,low,low,low,low,low,low,low,low,low,low,medium,medium,medium,medium,medium,low,low,low,low,low,low,low,low,low,low,low,low,low,low,low,low,low,medium
high,low,high,low,high,low,low,low,low,high,high,low,low,low,low,medium,medium,low,low,low,low,low,low,low,low,low,low,low,low,low,medium,medium,medium,medium,medium,low,low,low,low,low,low,low,low,low,low,low,low,low,low,low,low,low,medium
high,low,high,low,high,low,low,low,low,low,low,low,low,low,low,medium,medium,low,low,low,low,low,low,low,low,low,low,low,low,low,medium,medium,medium,medium,medium,low,low,low,low,low,low,low,low,low,low,low,low,low,low,low,low,low,medium
high,low,high,low,high,low,low,low,low,low,low,low,low,low,low,medium,medium,low,low,low,low,low,low,low,low,low,low,low,low,low,medium,medium,medium,medium,medium,low,low,low,low,low,low,low,low,low,low,low,low,low,low,low,low,low,medium
high,low,high,low,high,low,low,low,low,low,low,low,low,low,low,medium,medium,low,low,low,low,low,low,low,low,low,low,low,low,low,medium,medium,medium,medium,medium,low,low,low,low,low,low,low,low,low,low,low,low,low,low,low,low,low,medium
high,low,medium,low,high,low,low,low,low,low,low,low,low,low,low,medium,medium,low,low,low,low,low,low,low,low,low,low,low,low,low,medium,medium,medium,medium,medium,low,low,low,low,low,low,low,low,low,low,low,low,low,low,low,low,low,medium
high,low,low,low,high,low,low,low,low,low,low,low,low,low,low,medium,medium,low,low,low,low,low,low,low,low,low,low,low,low,low,medium,medium,medium,medium,medium,low,low,low,low,low,low,low,low,low,low,low,low,low,low,low,low,low,medium
high,low,medium,low,high,low,low,low,low,low,low,low,low,low,low,medium,medium,low,low,low,low,low,low,low,low,low,low,low,low,low,medium,medium,medium,medium,medium,low,low,low,low,low,low,low,low,low,low,low,low,low,low,low,low,low,low
high,low,high,low,high,low,low,low,low,low,low,low,low,low,low,medium,medium,low,low,low,low,low,low,low,low,low,low,low,low,low,medium,medium,medium,medium,medium,low,low,low,low,low,low,low,low,low,low,low,low,low,low,low,low,low,low
high,low,high,low,high,low,low,low,low,low,low,low,low,low,low,medium,medium,low,low,low,low,low,low,low,low,low,low,low,low,low,medium,medium,medium,medium,medium,low,low,low,low,low,low,low,low,low,low,low,low,low,low,low,low,low,low
high,low,high,low,high,low,low,low,low,low,low,low,low,low,low,medium,medium,low,low,low,low,low,low,low,low,low,low,low,low,low,medium,medium,medium,medium,medium,low,low,low,low,low,low,low,low,low,low,low,low,low,low,low,low,low,low
high,low,high,low,high,low,low,low,low,low,low,low,low,low,low,medium,medium,low,low,low,low,low,low,low,low,low,low,low,low,low,medium,medium,medium,medium,medium,low,low,low,low,low,low,low,low,low,low,low,low,low,low,low,low,low,low
high,low,high,low,high,low,low,low,low,low,low,low,low,low,low,medium,medium,low,low,low,low,low,low,low,low,low,low,low,low,low,medium,medium,medium,medium,medium,low,low,low,low,low,low,low,low,low,low,low,low,low,low,low,low,low,low
high,low,high,low,high,low,low,low,low,low,low,low,low,low,low,medium,medium,low,low,low,low,low,low,low,low,low,low,low,low,low,medium,medium,medium,medium,medium,low,low,low,low,low,low,low,low,low,low,low,low,low,low,low,low,low,low
high,low,high,low,high,low,low,low,low,low,low,low,low,low,low,medium,medium,low,low,low,low,low,low,low,low,low,low,low,low,low,medium,medium,medium,medium,medium,low,low,low,low,low,low,low,low,low,low,low,low,low,low,low,low,low,low
high,low,high,low,high,low,low,low,low,low,low,low,low,low,low,medium,medium,low,low,low,low,low,low,low,low,low,low,low,low,low,medium,medium,medium,medium,medium,low,low,low,low,low,low,low,low,low,low,low,low,low,low,low,low,low,low
high,low,high,low,high,low,low,low,low,low,low,low,low,low,low,medium,medium,low,low,low,low,low,low,low,low,low,low,low,low,low,medium,medium,medium,medium,medium,low,low,low,low,low,low,low,low,low,low,low,low,low,low,low,low,low,low
high,low,high,low,high,low,low,low,low,low,low,low,low,low,low,medium,medium,low,low,low,low,low,low,low,low,low,low,low,low,low,medium,medium,medium,medium,medium,low,low,low,low,low,low,low,low,low,low,low,low,low,low,low,low,low,low
high,low,high,low,high,low,low,low,low,low,low,low,low,low,low,medium,medium,low,low,low,low,low,low,low,low,low,low,low,low,low,medium,medium,medium,medium,medium,low,low,low,low,low,low,low,low,low,low,low,low,low,low,low,low,low,low
high,low,high,low,high,low,low,low,low,low,low,low,low,low,low,medium,medium,low,low,low,low,low,low,low,low,low,low,low,low,low,medium,medium,medium,medium,medium,low,low,low,low,low,low,low,low,low,low,low,low,low,low,low,low,low,low
high,low,high,low,high,low,low,low,low,low,low,low,low,low,low,medium,medium,low,low,low,low,low,low,low,low,low,low,low,low,low,medium,medium,medium,medium,medium,low,low,low,low,low,low,low,low,low,low,low,low,low,low,low,low,low,low
high,low,high,low,high,low,low,low,low,low,low,low,low,low,low,medium,medium,low,low,low,low,low,low,low,low,low,low,low,low,low,medium,medium,medium,medium,medium,low,low,low,low,low,low,low,low,low,low,low,low,low,low,low,low,low,low
high,low,high,low,high,low,low,low,low,low,low,low,low,low,low,medium,medium,low,low,low,low,low,low,low,low,low,low,low,low,low,medium,medium,medium,medium,medium,low,low,low,low,low,low,low,low,low,low,low,low,low,low,low,low,low,low
high,low,high,low,high,low,low,low,low,low,low,low,low,low,low,medium,medium,low,low,low,low,low,low,low,low,low,low,low,low,low,medium,medium,medium,medium,medium,low,low,low,low,low,low,low,low,low,low,low,low,low,low,low,low,low,low
high,low,high,low,high,low,low,low,low,low,low,low,low,low,low,medium,medium,low,low,low,low,low,low,low,low,low,low,low,low,low,medium,medium,medium,medium,medium,low,low,low,low,low,low,low,low,low,low,low,low,low,low,low,low,low,low
high,low,high,low,high,low,low,low,low,low,low,low,low,low,low,medium,medium,low,low,low,low,low,low,low,low,low,low,low,low,low,medium,medium,medium,medium,medium,low,low,low,low,low,low,low,low,low,low,low,low,low,low,low,low,low,low
high,low,high,low,high,low,low,low,low,low,low,low,low,low,low,medium,medium,low,low,low,low,low,low,low,low,low,low,low,low,low,medium,medium,medium,medium,medium,low,low,low,low,low,low,low,low,low,low,low,low,low,low,low,low,low,low
high,low,high,low,high,low,low,low,low,low,low,low,low,low,low,medium,medium,low,low,low,low,low,low,low,low,low,low,low,low,low,medium,medium,medium,medium,medium,low,low,low,low,low,low,low,low,low,low,low,low,low,low,low,low,low,low
